module gitlab.com/radiofrance/go-container-registry

go 1.23.4

require github.com/google/go-containerregistry v0.20.3

require (
	github.com/containerd/stargz-snapshotter/estargz v0.16.3 // indirect
	github.com/docker/cli v27.5.0+incompatible // indirect
	github.com/docker/distribution v2.8.3+incompatible // indirect
	github.com/docker/docker-credential-helpers v0.8.2 // indirect
	github.com/klauspost/compress v1.17.11 // indirect
	github.com/mitchellh/go-homedir v1.1.0 // indirect
	github.com/opencontainers/go-digest v1.0.0 // indirect
	github.com/opencontainers/image-spec v1.1.0 // indirect
	github.com/pkg/errors v0.9.1 // indirect
	github.com/sirupsen/logrus v1.9.3 // indirect
	github.com/vbatts/tar-split v0.11.6 // indirect
	golang.org/x/sync v0.10.0 // indirect
	golang.org/x/sys v0.29.0 // indirect
)
